%YAML 1.1
%TAG !u! tag:unity3d.com,2011:
--- !u!114 &11400000
MonoBehaviour:
  m_ObjectHideFlags: 0
  m_CorrespondingSourceObject: {fileID: 0}
  m_PrefabInstance: {fileID: 0}
  m_PrefabAsset: {fileID: 0}
  m_GameObject: {fileID: 0}
  m_Enabled: 1
  m_EditorHideFlags: 0
  m_Script: {fileID: 11500000, guid: cd74c63d0821a624ba4f969c02022913, type: 3}
  m_Name: BalloonNumbers
  m_EditorClassIdentifier: 
  _Numbers:
  - Number: 0
    Sprite: {fileID: 21300000, guid: fcfcd0ae4067d684a8d5e71240fe242b, type: 3}
  - Number: 1
    Sprite: {fileID: 21300000, guid: a64abc836a2674c4ca750c0e8557ec6c, type: 3}
  - Number: 2
    Sprite: {fileID: 21300000, guid: aff4a2bb5266cc444ab215a4a2d0686a, type: 3}
  - Number: 3
    Sprite: {fileID: 21300000, guid: 521f3f48941a0954fa9fa92e16f2ef87, type: 3}
  - Number: 4
    Sprite: {fileID: 21300000, guid: 533ce5a2af4660f48ad88ea36a0a0e9c, type: 3}
  - Number: 5
    Sprite: {fileID: 21300000, guid: 41bc1883f6a40ef4692240c28726ec0a, type: 3}
  - Number: 6
    Sprite: {fileID: 21300000, guid: 79d0535d80b4c824aa379707280d944f, type: 3}
  - Number: 7
    Sprite: {fileID: 21300000, guid: 070110f5d1a3d67479e24b46d3c1511c, type: 3}
  - Number: 8
    Sprite: {fileID: 21300000, guid: d1166341110f29a4da78866c20eca06b, type: 3}
  - Number: 9
    Sprite: {fileID: 21300000, guid: f840a4e942c77504f8244fe6a9e866be, type: 3}
  - Number: 10
    Sprite: {fileID: 21300000, guid: 4916ef52778d07341b3b738f9c9e2e17, type: 3}
